%YAML 1.1
%TAG !u! tag:unity3d.com,2011:
--- !u!114 &11400000
MonoBehaviour:
  m_ObjectHideFlags: 0
  m_CorrespondingSourceObject: {fileID: 0}
  m_PrefabInstance: {fileID: 0}
  m_PrefabAsset: {fileID: 0}
  m_GameObject: {fileID: 0}
  m_Enabled: 1
  m_EditorHideFlags: 0
  m_Script: {fileID: 11500000, guid: 0fbbdbcf606ead24d83bc8debfad7963, type: 3}
  m_Name: SoundSettingsPreset
  m_EditorClassIdentifier: 
  AudioMixer: {fileID: 24100000, guid: ff35952f7a7983e469bf09c0664bf4bb, type: 2}
  MasterVolumeName: MasterVolume
  MasterVolume: 0
  MusicVolumeName: MusicVolume
  MusicVolume: 0
  MasterSFXVolumeName: MasterSFXVolume
  MasterSFXVolume: 0
  SFXVolumeName: SFXVolume
  SFXVolume: 0
  UIVolumeName: UIVolume
  UIVolume: 0
